{
    items:[
        {
            name:'Food',
            constant:'FOOD',
            maxuses:1,
            description:'Food resources package'
        },
        {
            name:'Water',
            constant:'WATER',
            maxuses:1,
            description:'Water resources package'
        },
        {
            name:'Materials',
            constant:'MATERIALS',
            maxuses:1,
            description:'Material resources package'
        },
        {
            name:'Energy Cell',
            constant:'ENERGYCELL',
            maxuses:1,
            description:'Energy resources package'
        },
        {
            name:'Mortar',
            constant:'MORTAR',
            maxuses:1,
            description:'Throw a missile into the map damaging characters and zombies in the affected area',
            ability:'Mortar'
        },
        {
            name:'Sniper',
            constant:'SNIPER',
            maxuses:1,
            description:'Fire a single round to kill a zombie from a safe distance at the beginning of your turn',
            ability:'Sniper'
        },
        {
            name:'Repair kit',
            constant:'REPAIRKIT',
            maxuses:2,
            description:'With a repair kit you can fix a generator partially',
            ability:'RepairKit'
        },
        {
            name:'Booby trap',
            constant:'BOOBYTRAP',
            maxuses:1,
            description:'Booby trap a zombie so it inmolates himself when attacking',
            ability:'BoobyTrap'
        },
        {
            name:'Surgery',
            constant:'SURGERY',
            maxuses:1,
            description:'Try to save one of your characters when he is badly injured',
            ability:'Surgery'
        },
        {
            name:'Strike force',
            constant:'STRIKEFORCE',
            maxuses:1,
            description:'Perform an incredibly powerful attack on a zombie',
            ability:'StrikeForce'
        }
    ]
}