{
    npcs:[
        {
            constant:'ZOMBIEBOB',
            skills:{
                movement:2,
                health:30,
                defense:1,
                melee:3
            }
        },
         {
            constant:'ZOMBIEROB',
            skills:{
                movement:2,
                health:30,
                defense:1,
                melee:3
            }
		},
		 {
		    constant:'ZOMBIELOHAN',
		    skills:{
		        movement:2,
		        health:30,
		        defense:1,
		        melee:3
		    }
		},
		 {
		    constant:'ZOMBIEANNE',
		    skills:{
		        movement:2,
		        health:30,
		        defense:1,
		        melee:3
		    }
		}
    ]
}